%YAML 1.1
%TAG !u! tag:unity3d.com,2011:
--- !u!114 &11400000
MonoBehaviour:
  m_ObjectHideFlags: 0
  m_CorrespondingSourceObject: {fileID: 0}
  m_PrefabInstance: {fileID: 0}
  m_PrefabAsset: {fileID: 0}
  m_GameObject: {fileID: 0}
  m_Enabled: 1
  m_EditorHideFlags: 0
  m_Script: {fileID: 11500000, guid: 95e66c6366d904e98bc83428217d4fd7, type: 3}
  m_Name: FPmovement
  m_EditorClassIdentifier: 
  _data:
    _json: '{"graph":{"variables":{"Kind":"Flow","collection":{"$content":[],"$version":"A"},"$version":"A"},"controlInputDefinitions":[],"controlOutputDefinitions":[],"valueInputDefinitions":[],"valueOutputDefinitions":[],"title":null,"summary":null,"pan":{"x":263.0728,"y":1737.564},"zoom":1.0,"elements":[{"coroutine":false,"defaultValues":{},"position":{"x":-230.0,"y":-173.0},"guid":"6d05ecf7-7f48-4375-a9e8-5295ee75ee04","$version":"A","$type":"Unity.VisualScripting.Start","$id":"9"},{"chainable":false,"member":{"name":"SetActive","parameterTypes":["System.Boolean"],"targetType":"UnityEngine.GameObject","targetTypeName":"UnityEngine.GameObject","$version":"A"},"defaultValues":{"target":{"$content":0,"$type":"UnityEngine.Object"},"%value":{"$content":false,"$type":"System.Boolean"}},"position":{"x":784.0,"y":-177.0},"guid":"193e7660-da04-4897-8385-3fc6d664bc2b","$version":"A","$type":"Unity.VisualScripting.InvokeMember","$id":"11"},{"defaultValues":{},"position":{"x":461.0,"y":298.0},"guid":"e1dfc8fb-9b1d-454d-8875-167a569f50c2","$version":"A","$type":"Unity.VisualScripting.GenericMultiply","$id":"14"},{"type":"System.Single","value":{"$content":10.0,"$type":"System.Single"},"defaultValues":{},"position":{"x":318.0,"y":2017.0},"guid":"79bcff6b-ead5-46b8-8273-0020dcd92806","$version":"A","$type":"Unity.VisualScripting.Literal","$id":"16"},{"inputCount":2,"defaultValues":{},"position":{"x":496.0,"y":1502.0},"guid":"be9c3cb7-f611-4cdf-8c13-3cc84d571717","$version":"A","$type":"Unity.VisualScripting.GenericSum","$id":"18"},{"chainable":false,"member":{"name":"Find","parameterTypes":["System.String"],"targetType":"UnityEngine.GameObject","targetTypeName":"UnityEngine.GameObject","$version":"A"},"defaultValues":{"%name":{"$content":"Capsule","$type":"System.String"}},"position":{"x":482.0,"y":-174.0},"guid":"b8a9c284-e5ad-46be-be30-aea224db38ba","$version":"A","$type":"Unity.VisualScripting.InvokeMember","$id":"20"},{"defaultValues":{},"position":{"x":360.0,"y":1393.0},"guid":"35d9f1ac-4828-443a-ba07-62d56bba3010","$version":"A","$type":"Unity.VisualScripting.GenericMultiply","$id":"23"},{"chainable":false,"member":{"name":"visible","parameterTypes":null,"targetType":"UnityEngine.Cursor","targetTypeName":"UnityEngine.Cursor","$version":"A"},"defaultValues":{"input":{"$content":false,"$type":"System.Boolean"}},"position":{"x":15.0,"y":-173.0},"guid":"3d494e92-e9f4-4ac1-b6bd-a3ec05e9c501","$version":"A","$type":"Unity.VisualScripting.SetMember","$id":"25"},{"chainable":false,"member":{"name":"GetAxisRaw","parameterTypes":["System.String"],"targetType":"UnityEngine.Input","targetTypeName":"UnityEngine.Input","$version":"A"},"defaultValues":{"%axisName":{"$content":"Vertical","$type":"System.String"}},"position":{"x":82.0,"y":1627.0},"guid":"eb9b0e6b-b0f3-479d-8046-98d62163b54d","$version":"A","$type":"Unity.VisualScripting.InvokeMember","$id":"28"},{"member":{"name":"forward","parameterTypes":null,"targetType":"UnityEngine.Vector3","targetTypeName":"UnityEngine.Vector3","$version":"A"},"defaultValues":{},"position":{"x":110.0,"y":1768.0},"guid":"777eda45-656e-41c5-906f-c3aabf806a78","$version":"A","$type":"Unity.VisualScripting.GetMember","$id":"31"},{"member":{"name":"deltaTime","parameterTypes":null,"targetType":"UnityEngine.Time","targetTypeName":"UnityEngine.Time","$version":"A"},"defaultValues":{},"position":{"x":41.0,"y":1899.0},"guid":"e566c8c3-1048-44ae-99bf-9aac60bb55bb","$version":"A","$type":"Unity.VisualScripting.GetMember","$id":"34"},{"defaultValues":{},"position":{"x":436.0,"y":1868.0},"guid":"076ccb01-71e8-4728-ab97-a02f563d3939","$version":"A","$type":"Unity.VisualScripting.GenericMultiply","$id":"37"},{"defaultValues":{},"position":{"x":643.0,"y":1560.0},"guid":"053d98be-063f-403e-885c-e0f35238d456","$version":"A","$type":"Unity.VisualScripting.GenericMultiply","$id":"39"},{"coroutine":false,"defaultValues":{},"position":{"x":-200.0,"y":1627.0},"guid":"ce391645-585b-4e12-a5dd-8d19b6e3cf1a","$version":"A","$type":"Unity.VisualScripting.Update","$id":"41"},{"chainable":false,"member":{"name":"Translate","parameterTypes":["UnityEngine.Vector3","UnityEngine.Space"],"targetType":"UnityEngine.Transform","targetTypeName":"UnityEngine.Transform","$version":"A"},"defaultValues":{"target":null,"%translation":{"x":0.0,"y":0.0,"z":0.0,"$type":"UnityEngine.Vector3"},"%relativeTo":{"$content":"Self","$type":"UnityEngine.Space"}},"position":{"x":807.0,"y":1293.0},"guid":"4b777dda-c11a-4c0d-9bde-aa1f4f90619f","$version":"A","$type":"Unity.VisualScripting.InvokeMember","$id":"43"},{"defaultValues":{},"position":{"x":302.0,"y":1697.0},"guid":"26a24abf-3e9f-47b2-8985-0e64a6f9e8f0","$version":"A","$type":"Unity.VisualScripting.GenericMultiply","$id":"46"},{"coroutine":false,"defaultValues":{},"position":{"x":-296.0,"y":87.0},"guid":"befa5fd8-bc9d-4d1b-b4f2-25cc57f48795","$version":"A","$type":"Unity.VisualScripting.Update","$id":"48"},{"chainable":false,"member":{"name":"lockState","parameterTypes":null,"targetType":"UnityEngine.Cursor","targetTypeName":"UnityEngine.Cursor","$version":"A"},"defaultValues":{"input":{"$content":"Locked","$type":"UnityEngine.CursorLockMode"}},"position":{"x":218.0,"y":-174.0},"guid":"af794f76-0a52-45cc-9939-77d3917d29a1","$version":"A","$type":"Unity.VisualScripting.SetMember","$id":"50"},{"chainable":false,"member":{"name":"Rotate","parameterTypes":["System.Single","System.Single","System.Single"],"targetType":"UnityEngine.Transform","targetTypeName":"UnityEngine.Transform","$version":"A"},"defaultValues":{"target":null,"%xAngle":{"$content":0.0,"$type":"System.Single"},"%yAngle":{"$content":0.0,"$type":"System.Single"},"%zAngle":{"$content":0.0,"$type":"System.Single"}},"position":{"x":729.0,"y":144.0},"guid":"4145fead-c1c7-410d-a941-6e5f5d80c5f2","$version":"A","$type":"Unity.VisualScripting.InvokeMember","$id":"53"},{"defaultValues":{},"position":{"x":443.0,"y":717.0},"guid":"e01d4702-ce7f-4d50-8a07-f2678eda0cab","$version":"A","$type":"Unity.VisualScripting.GenericMultiply","$id":"56"},{"chainable":false,"member":{"name":"GetAxisRaw","parameterTypes":["System.String"],"targetType":"UnityEngine.Input","targetTypeName":"UnityEngine.Input","$version":"A"},"defaultValues":{"%axisName":{"$content":"Mouse
      X","$type":"System.String"}},"position":{"x":146.0,"y":151.0},"guid":"c381325e-b67f-44f2-81ed-13d1fba7a7da","$version":"A","$type":"Unity.VisualScripting.InvokeMember","$id":"58"},{"type":"System.Single","value":{"$content":10.0,"$type":"System.Single"},"defaultValues":{},"position":{"x":-79.0,"y":805.0},"guid":"4a46d7d5-69d9-48f1-a0f5-a03d8b83d27b","$version":"A","$type":"Unity.VisualScripting.Literal","$id":"61"},{"member":{"name":"deltaTime","parameterTypes":null,"targetType":"UnityEngine.Time","targetTypeName":"UnityEngine.Time","$version":"A"},"defaultValues":{},"position":{"x":-19.0,"y":972.0},"guid":"aed5b904-1b9d-47cc-bbb4-cebe7cf6b790","$version":"A","$type":"Unity.VisualScripting.GetMember","$id":"63"},{"member":{"name":"right","parameterTypes":null,"targetType":"UnityEngine.Vector3","targetTypeName":"UnityEngine.Vector3","$version":"A"},"defaultValues":{},"position":{"x":175.0,"y":1418.0},"guid":"9a341fed-a402-4c41-8942-3239ee84a499","$version":"A","$type":"Unity.VisualScripting.GetMember","$id":"66"},{"coroutine":false,"defaultValues":{},"position":{"x":-148.0,"y":1286.0},"guid":"a86c8b38-c731-4a62-8d20-0f652db7d8c6","$version":"A","$type":"Unity.VisualScripting.Update","$id":"69"},{"defaultValues":{},"position":{"x":147.0,"y":854.0},"guid":"ef827f54-c3eb-4815-8b14-c3f9361f639a","$version":"A","$type":"Unity.VisualScripting.GenericMultiply","$id":"71"},{"specifyFallback":false,"kind":"Object","defaultValues":{"name":{"$content":"Camara","$type":"System.String"},"object":null},"position":{"x":380.0,"y":501.0},"guid":"1be1dcc3-5fce-4a06-9c07-1f05a2522363","$version":"A","$type":"Unity.VisualScripting.GetVariable","$id":"73"},{"chainable":false,"member":{"name":"GetAxisRaw","parameterTypes":["System.String"],"targetType":"UnityEngine.Input","targetTypeName":"UnityEngine.Input","$version":"A"},"defaultValues":{"%axisName":{"$content":"Horizontal","$type":"System.String"}},"position":{"x":134.0,"y":1286.0},"guid":"6f1147d6-68d6-47eb-af47-8566542c2815","$version":"A","$type":"Unity.VisualScripting.InvokeMember","$id":"75"},{"defaultValues":{},"position":{"x":151.0,"y":408.0},"guid":"6b7df8dd-7606-4864-8373-b609f675b214","$version":"A","$type":"Unity.VisualScripting.GenericMultiply","$id":"78"},{"member":{"name":"deltaTime","parameterTypes":null,"targetType":"UnityEngine.Time","targetTypeName":"UnityEngine.Time","$version":"A"},"defaultValues":{},"position":{"x":-15.0,"y":526.0},"guid":"8d5e94e9-ac20-4a3a-a1fb-395227cd40cd","$version":"A","$type":"Unity.VisualScripting.GetMember","$id":"80"},{"type":"System.Single","value":{"$content":10.0,"$type":"System.Single"},"defaultValues":{},"position":{"x":-75.0,"y":359.0},"guid":"515a6d1e-7304-4988-8196-dab5094562cc","$version":"A","$type":"Unity.VisualScripting.Literal","$id":"83"},{"chainable":false,"member":{"name":"Rotate","parameterTypes":["System.Single","System.Single","System.Single"],"targetType":"UnityEngine.Transform","targetTypeName":"UnityEngine.Transform","$version":"A"},"defaultValues":{"target":null,"%xAngle":{"$content":0.0,"$type":"System.Single"},"%yAngle":{"$content":0.0,"$type":"System.Single"},"%zAngle":{"$content":0.0,"$type":"System.Single"}},"position":{"x":725.0,"y":590.0},"guid":"175b8592-11c0-4d47-b721-8f9acec0485c","$version":"A","$type":"Unity.VisualScripting.InvokeMember","$id":"85"},{"chainable":false,"member":{"name":"GetAxisRaw","parameterTypes":["System.String"],"targetType":"UnityEngine.Input","targetTypeName":"UnityEngine.Input","$version":"A"},"defaultValues":{"%axisName":{"$content":"Mouse
      Y","$type":"System.String"}},"position":{"x":142.0,"y":597.0},"guid":"bfb0c513-a445-4a8d-9630-2cce08af4b53","$version":"A","$type":"Unity.VisualScripting.InvokeMember","$id":"88"},{"coroutine":false,"defaultValues":{},"position":{"x":-300.0,"y":533.0},"guid":"9dc48ac7-7a93-4655-8c52-ef19c5685c72","$version":"A","$type":"Unity.VisualScripting.Update","$id":"91"},{"sourceUnit":{"$ref":"50"},"sourceKey":"assigned","destinationUnit":{"$ref":"20"},"destinationKey":"enter","guid":"6e54a92e-09df-4567-99a6-3673394ede56","$type":"Unity.VisualScripting.ControlConnection"},{"sourceUnit":{"$ref":"20"},"sourceKey":"exit","destinationUnit":{"$ref":"11"},"destinationKey":"enter","guid":"a4006d69-3393-4ee4-812d-fecab9dabd3f","$type":"Unity.VisualScripting.ControlConnection"},{"sourceUnit":{"$ref":"25"},"sourceKey":"assigned","destinationUnit":{"$ref":"50"},"destinationKey":"assign","guid":"ab4f33e5-362a-467c-a8fa-779b81d58ce0","$type":"Unity.VisualScripting.ControlConnection"},{"sourceUnit":{"$ref":"9"},"sourceKey":"trigger","destinationUnit":{"$ref":"25"},"destinationKey":"assign","guid":"94cae801-bc60-4887-a4f0-b8725eb744a9","$type":"Unity.VisualScripting.ControlConnection"},{"sourceUnit":{"$ref":"48"},"sourceKey":"trigger","destinationUnit":{"$ref":"58"},"destinationKey":"enter","guid":"c2b90ce1-fed3-4aa2-924a-dee6d01db1db","$type":"Unity.VisualScripting.ControlConnection"},{"sourceUnit":{"$ref":"69"},"sourceKey":"trigger","destinationUnit":{"$ref":"75"},"destinationKey":"enter","guid":"3c6a8d1f-073a-4215-a08b-d1f5b9d78b47","$type":"Unity.VisualScripting.ControlConnection"},{"sourceUnit":{"$ref":"88"},"sourceKey":"exit","destinationUnit":{"$ref":"85"},"destinationKey":"enter","guid":"f657acea-ab3a-4db4-9bf3-3e7debb912a0","$type":"Unity.VisualScripting.ControlConnection"},{"sourceUnit":{"$ref":"91"},"sourceKey":"trigger","destinationUnit":{"$ref":"88"},"destinationKey":"enter","guid":"3e865cc7-e820-48ff-bf6c-c1d30391c40c","$type":"Unity.VisualScripting.ControlConnection"},{"sourceUnit":{"$ref":"58"},"sourceKey":"exit","destinationUnit":{"$ref":"53"},"destinationKey":"enter","guid":"f6b39879-78e0-40f2-b8ca-c8fd7260eae8","$type":"Unity.VisualScripting.ControlConnection"},{"sourceUnit":{"$ref":"75"},"sourceKey":"exit","destinationUnit":{"$ref":"43"},"destinationKey":"enter","guid":"b3889a8b-f5e7-494c-a68a-a67e7386ce58","$type":"Unity.VisualScripting.ControlConnection"},{"sourceUnit":{"$ref":"41"},"sourceKey":"trigger","destinationUnit":{"$ref":"28"},"destinationKey":"enter","guid":"7983a21c-c834-49c9-9a28-ba6bea6f89f0","$type":"Unity.VisualScripting.ControlConnection"},{"sourceUnit":{"$ref":"28"},"sourceKey":"exit","destinationUnit":{"$ref":"43"},"destinationKey":"enter","guid":"970dc239-4cf1-4d9e-890f-224cd5acafcf","$type":"Unity.VisualScripting.ControlConnection"},{"sourceUnit":{"$ref":"34"},"sourceKey":"value","destinationUnit":{"$ref":"37"},"destinationKey":"a","guid":"d0c4cc0d-654f-48b6-87b0-b33645b712f3","$type":"Unity.VisualScripting.ValueConnection"},{"sourceUnit":{"$ref":"46"},"sourceKey":"product","destinationUnit":{"$ref":"18"},"destinationKey":"1","guid":"ae20ba15-abec-44cc-98df-cfcd024d272c","$type":"Unity.VisualScripting.ValueConnection"},{"sourceUnit":{"$ref":"28"},"sourceKey":"result","destinationUnit":{"$ref":"46"},"destinationKey":"a","guid":"ab5a08d1-756c-4595-bf6f-1abae60c5b4a","$type":"Unity.VisualScripting.ValueConnection"},{"sourceUnit":{"$ref":"37"},"sourceKey":"product","destinationUnit":{"$ref":"39"},"destinationKey":"b","guid":"24973ba1-a6ea-469a-a457-d3a1f0564418","$type":"Unity.VisualScripting.ValueConnection"},{"sourceUnit":{"$ref":"23"},"sourceKey":"product","destinationUnit":{"$ref":"18"},"destinationKey":"0","guid":"241f0bcc-7a99-44f6-b82e-a0f188d1175b","$type":"Unity.VisualScripting.ValueConnection"},{"sourceUnit":{"$ref":"18"},"sourceKey":"sum","destinationUnit":{"$ref":"39"},"destinationKey":"a","guid":"8a6aa757-bd17-4095-a3e6-6eba254ca8df","$type":"Unity.VisualScripting.ValueConnection"},{"sourceUnit":{"$ref":"73"},"sourceKey":"value","destinationUnit":{"$ref":"85"},"destinationKey":"target","guid":"0ec2e99c-8ac3-42d8-b30e-2698c9ba4d60","$type":"Unity.VisualScripting.ValueConnection"},{"sourceUnit":{"$ref":"16"},"sourceKey":"output","destinationUnit":{"$ref":"37"},"destinationKey":"b","guid":"8ee8e6fa-3193-40f5-8df5-e6ca8478d045","$type":"Unity.VisualScripting.ValueConnection"},{"sourceUnit":{"$ref":"78"},"sourceKey":"product","destinationUnit":{"$ref":"14"},"destinationKey":"b","guid":"4135c3ce-25b4-4df0-a7c2-f936f9f58f36","$type":"Unity.VisualScripting.ValueConnection"},{"sourceUnit":{"$ref":"31"},"sourceKey":"value","destinationUnit":{"$ref":"46"},"destinationKey":"b","guid":"e07c7772-726d-4c6c-ad14-c46c75cedb2d","$type":"Unity.VisualScripting.ValueConnection"},{"sourceUnit":{"$ref":"66"},"sourceKey":"value","destinationUnit":{"$ref":"23"},"destinationKey":"b","guid":"c40155fa-f292-4581-b93b-15209d21d0fd","$type":"Unity.VisualScripting.ValueConnection"},{"sourceUnit":{"$ref":"61"},"sourceKey":"output","destinationUnit":{"$ref":"71"},"destinationKey":"a","guid":"f3847a68-8491-4974-9cf8-47ec0969bdd5","$type":"Unity.VisualScripting.ValueConnection"},{"sourceUnit":{"$ref":"63"},"sourceKey":"value","destinationUnit":{"$ref":"71"},"destinationKey":"b","guid":"cc976bcb-0aed-4cee-9fba-43550f581534","$type":"Unity.VisualScripting.ValueConnection"},{"sourceUnit":{"$ref":"39"},"sourceKey":"product","destinationUnit":{"$ref":"43"},"destinationKey":"%translation","guid":"dc92fe79-a7b8-4e04-9d4a-b17c70eec6db","$type":"Unity.VisualScripting.ValueConnection"},{"sourceUnit":{"$ref":"14"},"sourceKey":"product","destinationUnit":{"$ref":"53"},"destinationKey":"%yAngle","guid":"63c32a77-9432-49cc-9a76-d4860d4e0bf2","$type":"Unity.VisualScripting.ValueConnection"},{"sourceUnit":{"$ref":"71"},"sourceKey":"product","destinationUnit":{"$ref":"56"},"destinationKey":"b","guid":"1d2d8f89-66d5-4d50-b006-ac7dfdc387da","$type":"Unity.VisualScripting.ValueConnection"},{"sourceUnit":{"$ref":"88"},"sourceKey":"result","destinationUnit":{"$ref":"56"},"destinationKey":"a","guid":"56b78c4e-6919-468f-8c83-69124eb39fb1","$type":"Unity.VisualScripting.ValueConnection"},{"sourceUnit":{"$ref":"58"},"sourceKey":"result","destinationUnit":{"$ref":"14"},"destinationKey":"a","guid":"60e6d91f-e825-4c3f-a018-e358276a4068","$type":"Unity.VisualScripting.ValueConnection"},{"sourceUnit":{"$ref":"80"},"sourceKey":"value","destinationUnit":{"$ref":"78"},"destinationKey":"b","guid":"8e718a12-0379-4eab-ad1d-c5b041f7e8dd","$type":"Unity.VisualScripting.ValueConnection"},{"sourceUnit":{"$ref":"75"},"sourceKey":"result","destinationUnit":{"$ref":"23"},"destinationKey":"a","guid":"75c9b7b4-c16c-473c-a35c-8d2047332dcc","$type":"Unity.VisualScripting.ValueConnection"},{"sourceUnit":{"$ref":"20"},"sourceKey":"result","destinationUnit":{"$ref":"11"},"destinationKey":"target","guid":"e83818f0-a497-4662-bf5f-dcd9bbfd9885","$type":"Unity.VisualScripting.ValueConnection"},{"sourceUnit":{"$ref":"83"},"sourceKey":"output","destinationUnit":{"$ref":"78"},"destinationKey":"a","guid":"a4561fa9-041a-4b47-aa77-6b1b5c73a6a8","$type":"Unity.VisualScripting.ValueConnection"},{"sourceUnit":{"$ref":"56"},"sourceKey":"product","destinationUnit":{"$ref":"85"},"destinationKey":"%xAngle","guid":"81db5f5e-19a1-4992-8993-62e34bd45cc1","$type":"Unity.VisualScripting.ValueConnection"}],"$version":"A"}}'
    _objectReferences:
    - {fileID: 7342882312705667875, guid: ccd22b082e37aea4aa5ebc0576d45431, type: 3}
